<svg width="11" height="16" viewBox="0 0 11 16" fill="white" xmlns="http://www.w3.org/2000/svg">
    <path d="M2.4728 15.6L0.281372 15.5L3.2528 11.8C4.90566 9.76001 6.2428 8.04001 6.2428 7.96001C6.2428 7.88001 4.90566 6.18001 3.27137 4.16001C1.63709 2.14001 0.299943 0.460011 0.299943 0.400011C0.299943 0.340011 1.33994 0.340011 2.62137 0.400011L4.9428 0.500011L7.91423 4.20001C9.54852 6.22001 10.8857 7.94001 10.8857 8.00001C10.8857 8.12001 5.23994 15.18 4.88709 15.5C4.75709 15.62 3.80994 15.66 2.4728 15.6Z"/>
</svg>
